<?xml version="1.0" encoding="UTF-8"?>
<svg width="30px" height="30px" viewBox="0 0 30 30" version="1.1" xmlns="http://www.w3.org/2000/svg" xmlns:xlink="http://www.w3.org/1999/xlink">
    <title>Icon/badge-empty</title>
    <g id="Icon/badge-empty" stroke="none" stroke-width="1" fill="none" fill-rule="evenodd">
        <circle id="Ellipse-534" stroke="#01319F" fill="#D92A27" fill-rule="nonzero" cx="15" cy="15" r="14.5"></circle>
    </g>
</svg>