<?xml version="1.0" encoding="UTF-8"?>
<svg width="12px" height="8px" viewBox="0 0 12 8" version="1.1" xmlns="http://www.w3.org/2000/svg" xmlns:xlink="http://www.w3.org/1999/xlink">
    <title>Icon/dd/up/white</title>
    <g id="Icon/dd/up/white" stroke="none" stroke-width="1" fill="none" fill-rule="evenodd">
        <path d="M0.411291864,-1.33226763e-15 L11.6055317,-1.33226763e-15 C11.9217548,-1.33226763e-15 12.1431065,0.411087841 11.8901329,0.695687175 L6.41950035,7.39958191 C6.2297678,7.65255928 5.81867981,7.65255928 5.62894678,7.39958191 L0.0950704774,0.695687175 C-0.126284544,0.411087841 0.0634483358,-1.33226763e-15 0.411291864,-1.33226763e-15 Z" id="🎨-Icon-Color" fill="#FFFFFF" fill-rule="nonzero" transform="translate(6.000000, 3.794657) scale(1, -1) translate(-6.000000, -3.794657) "></path>
    </g>
</svg>