<?xml version="1.0" encoding="UTF-8"?>
<svg width="12px" height="8px" viewBox="0 0 12 8" version="1.1" xmlns="http://www.w3.org/2000/svg" xmlns:xlink="http://www.w3.org/1999/xlink">
    <title>Icon - dd - white</title>
    <g id="Symbols" stroke="none" stroke-width="1" fill="none" fill-rule="evenodd">
        <g id="Dd-text/icon/white" transform="translate(-109.000000, -12.000000)" fill="#FFFFFF" fill-rule="nonzero">
            <g id="Subnav-item---white" transform="translate(33.000000, 0.000000)">
                <g id="🎨-Icon-Color" transform="translate(76.000000, 12.000000)">
                    <path d="M0.411291864,-1.33226763e-15 L11.6055317,-1.33226763e-15 C11.9217548,-1.33226763e-15 12.1431065,0.411087841 11.8901329,0.695687175 L6.41950035,7.39958191 C6.2297678,7.65255928 5.81867981,7.65255928 5.62894678,7.39958191 L0.0950704774,0.695687175 C-0.126284544,0.411087841 0.0634483358,-1.33226763e-15 0.411291864,-1.33226763e-15 Z"></path>
                </g>
            </g>
        </g>
    </g>
</svg>