<?xml version="1.0" encoding="UTF-8"?>
<svg width="25px" height="20px" viewBox="0 0 25 20" version="1.1" xmlns="http://www.w3.org/2000/svg" xmlns:xlink="http://www.w3.org/1999/xlink">
    <title>Icon/branch/white</title>
    <g id="Icon/branch/white" stroke="none" stroke-width="1" fill="none" fill-rule="evenodd">
        <g id="noun_Garage_2740475" transform="translate(0.000000, 0.000000)" fill="#FFFFFF" fill-rule="nonzero">
            <path d="M0.984615385,0.0138596076 L22.8251748,3.36238411 C23.3622378,3.45288477 23.6307692,3.90538808 23.6307692,4.35789139 L23.6307692,18.2949934 C23.6307692,18.8379974 23.1832168,19.2 22.7356643,19.2 L18.7972028,19.2 C18.2601399,19.2 17.9020979,18.8379974 17.9020979,18.2949934 L17.9020979,16.1229775 C13.7846154,16.1229775 9.75664336,16.1229775 5.63916084,16.1229775 L5.63916084,18.2949934 C5.63916084,18.8379974 5.28111888,19.2 4.83356643,19.2 L0.805594406,19.2 C0.358041958,19.2 0,18.8379974 0,18.2949934 L0,0.828365568 C0,0.285361594 0.447552448,-0.0766410546 0.984615385,0.0138596076 Z M13.0685315,14.3129642 L13.0685315,13.317457 L10.0251748,13.317457 L10.0251748,14.3129642 L13.0685315,14.3129642 Z M13.0685315,11.5979444 L13.0685315,9.06392583 L10.0251748,9.06392583 L10.0251748,11.5979444 L13.0685315,11.5979444 Z M8.23496503,14.3129642 L8.23496503,13.317457 L5.63916084,13.317457 L5.63916084,14.3129642 L8.23496503,14.3129642 Z M8.23496503,11.5979444 L8.23496503,9.06392583 L5.63916084,9.06392583 L5.63916084,11.5979444 L8.23496503,11.5979444 Z M14.7692308,9.06392583 L14.7692308,11.5979444 L17.9020979,11.5979444 L17.9020979,9.06392583 L14.7692308,9.06392583 Z M14.7692308,13.317457 L14.7692308,14.3129642 L17.9020979,14.3129642 L17.9020979,13.317457 L14.7692308,13.317457 Z" id="Shape"></path>
        </g>
    </g>
</svg>