<?xml version="1.0" encoding="UTF-8"?>
<svg width="41px" height="42px" viewBox="0 0 41 42" version="1.1" xmlns="http://www.w3.org/2000/svg" xmlns:xlink="http://www.w3.org/1999/xlink">
    <title>Icon/cart filled - empty badge</title>
    <g id="Icon/cart-filled---empty-badge" stroke="none" stroke-width="1" fill="none" fill-rule="evenodd">
        <g id="Group" transform="translate(0.000000, 12.000000)" fill="#FFFFFF" fill-rule="nonzero">
            <g id="🎨-Icon-Color">
                <path d="M12.3217598,24.7015839 C13.784741,24.7015839 14.9707216,25.8875652 14.9707216,27.3505473 C14.9707216,28.8135294 13.784741,29.9995108 12.3217598,29.9995108 C10.8587786,29.9995108 9.67279801,28.8135294 9.67279801,27.3505473 C9.67279801,25.8875652 10.8587786,24.7015839 12.3217598,24.7015839 Z M25.2354485,24.7015839 C26.6984296,24.7015839 27.8844102,25.8875652 27.8844102,27.3505473 C27.8844102,28.8135294 26.6984296,29.9995108 25.2354485,29.9995108 C23.7724673,29.9995108 22.5864867,28.8135294 22.5864867,27.3505473 C22.5864867,25.8875652 23.7724673,24.7015839 25.2354485,24.7015839 Z M4.37465367,-1.77635684e-15 C5.03689418,-1.77635684e-15 5.69913516,0.463568598 5.8978065,1.19203353 L5.8978065,1.19203353 L6.29515109,2.71518755 L30.7318228,2.71518755 C31.3940638,2.71518755 31.9238566,3.31120443 31.7251833,4.03966904 L31.7251833,4.03966904 L28.8113268,14.2381783 C28.7451018,14.7017479 28.281536,15.0328684 27.8179663,15.0328684 L27.8179663,15.0328684 L11.9904183,15.0328684 C10.9970578,15.0328684 10.2023705,16.0262299 10.53349,17.0195904 L10.53349,17.0195904 L10.53349,17.0858135 C10.7321623,17.7480545 11.3281783,18.2116241 12.0566433,18.2116241 L12.0566433,18.2116241 L28.4802073,18.2116241 C29.3411196,18.2116241 30.1358069,19.0063133 30.0695818,19.9334507 C30.0033587,20.794363 29.2086695,21.4566059 28.3477572,21.4566059 L28.3477572,21.4566059 L9.67257771,21.4566059 C8.94411263,21.4566059 8.3480967,20.9930363 8.14942441,20.2645702 L8.14942441,20.2645702 L3.11639724,3.24498034 L1.59324405,3.24498034 C0.73233143,3.24498034 -0.0623571079,2.45029116 0.00386693675,1.5231539 C0.0700909842,0.662240863 0.864779507,-1.77635684e-15 1.72569213,-1.77635684e-15 L1.72569213,-1.77635684e-15 Z"></path>
            </g>
        </g>
        <g id="Group" transform="translate(11.000000, 0.000000)" fill-rule="nonzero">
            <g id="badge">
                <g id="Ellipse-534" fill="#D92A27" stroke="#01319F">
                    <circle cx="15" cy="15" r="14.5"></circle>
                </g>
                <text id="2" font-family="Avenir-Black, Avenir" font-size="16" font-weight="700"></text>
            </g>
        </g>
    </g>
</svg>