<?xml version="1.0" encoding="UTF-8"?>
<svg width="25px" height="24px" viewBox="0 0 25 24" version="1.1" xmlns="http://www.w3.org/2000/svg" xmlns:xlink="http://www.w3.org/1999/xlink">
    <title>Icon/local delivery/green</title>
    <g id="Icon/local-delivery/green" stroke="none" stroke-width="1" fill="none" fill-rule="evenodd">
        <path d="M11.1459158,18.474 C12.6274796,18.474 13.9088317,19.6752677 13.9088317,21.2369158 C13.9088317,22.7585216 12.6675216,23.9998317 11.1459158,23.9998317 C9.62431011,23.9998317 8.38299999,22.7184796 8.38299999,21.2369158 C8.38299999,19.7153101 9.66435239,18.474 11.1459158,18.474 Z M22.4385929,14.7097871 C22.839015,14.5496181 23.2794809,14.7498294 23.4396496,15.1902942 L23.4396496,15.1902942 L23.9601994,16.6718579 C24.120368,17.152365 23.9201565,17.59283 23.5197334,17.7930413 L23.5197334,17.7930413 L15.1509017,20.6360414 C14.9506904,19.4748156 14.3100143,18.4737597 13.349,17.8731256 L13.349,17.8731256 Z M5.26028061,0.0547871233 C5.66070366,-0.105381931 6.10116863,0.0948293784 6.26133728,0.535294233 L6.26133728,0.535294233 L6.74184465,2.01685786 L12.1475496,17.3530426 C11.8272114,17.2329159 11.5068741,17.1928749 11.146493,17.1928749 C10.3456478,17.1928749 9.58484554,17.4331284 8.94416904,17.7935066 L8.94416904,17.7935066 L3.9789288,3.73867535 L1.53635072,4.53952026 C1.13592815,4.69968939 0.695463298,4.49947786 0.535294233,4.05901289 L0.535294233,4.05901289 L0.0547871233,2.57744956 C-0.105381931,2.17702698 0.0948293784,1.73656201 0.535294233,1.57639301 L0.535294233,1.57639301 Z M18.4341123,7.34256221 L20.1959722,12.3078026 C20.3961837,12.7883095 20.1158874,13.3489012 19.5953376,13.5491123 L14.6300981,15.3109722 C14.1495907,15.5111837 13.5489568,15.2308874 13.3887878,14.7103376 L11.6269283,9.74509806 C11.426717,9.26459069 11.7070129,8.66395683 12.2275622,8.50378782 L17.1928026,6.74192834 C17.6733095,6.54171704 18.2739436,6.82201286 18.4341123,7.34256221 Z M14.3494225,0.775562206 L15.5106473,4.13911186 C15.7108588,4.57957683 15.430563,5.18021093 14.9100137,5.38042245 L11.546464,6.54164729 C11.0659568,6.74185882 10.4653228,6.46156297 10.305154,5.94101367 L9.14392834,2.57746396 C8.94371704,2.09695683 9.22401286,1.49632285 9.74456221,1.33615396 L13.1081119,0.174928338 C13.5886192,-0.0252829556 14.1892533,0.255012863 14.3494225,0.775562206 Z" id="Shape" fill="#1C6019" fill-rule="nonzero"></path>
    </g>
</svg>